[0.7781438769906645, 0.7803404722679846, 0.7896760021965953, 0.7984623833058759, 0.7913234486545854]
[array([[763, 146],
       [258, 654]], dtype=int64), array([[738, 171],
       [229, 683]], dtype=int64), array([[657, 252],
       [131, 781]], dtype=int64), array([[668, 241],
       [126, 786]], dtype=int64), array([[698, 211],
       [169, 743]], dtype=int64)]
[0.7640186915887851, 0.7734994337485844, 0.8030848329048844, 0.8107271789582259, 0.7963558413719186]
0.7970183486238532
[[344 100]
 [ 77 351]]
0.7986348122866894
