[0.7528830313014827, 0.7819879187259747, 0.8012081274025261, 0.7885777045579352, 0.7819879187259747]
[array([[786, 123],
       [327, 585]], dtype=int64), array([[738, 171],
       [226, 686]], dtype=int64), array([[694, 215],
       [147, 765]], dtype=int64), array([[632, 277],
       [108, 804]], dtype=int64), array([[665, 244],
       [153, 759]], dtype=int64)]
[0.7222222222222222, 0.7755794234030526, 0.8086680761099366, 0.8068238835925742, 0.7926892950391645]
0.786697247706422
[[318 126]
 [ 60 368]]
0.7982646420824295
