[0.7622185612300933, 0.7847336628226249, 0.7759472817133443, 0.7786930258099946, 0.7874794069192751]
[array([[738, 171],
       [262, 650]], dtype=int64), array([[714, 195],
       [197, 715]], dtype=int64), array([[757, 152],
       [256, 656]], dtype=int64), array([[740, 169],
       [234, 678]], dtype=int64), array([[709, 200],
       [187, 725]], dtype=int64)]
[0.7501442585112522, 0.7848518111964874, 0.7627906976744186, 0.7708925525866971, 0.7893304300489928]
0.7809633027522935
[[345  99]
 [ 92 336]]
0.7786790266512167
