[0.7528830313014827, 0.7951674903898956, 0.7803404722679846, 0.8017572762218561, 0.800658978583196]
[array([[812,  97],
       [353, 559]], dtype=int64), array([[733, 176],
       [197, 715]], dtype=int64), array([[758, 151],
       [249, 663]], dtype=int64), array([[749, 160],
       [201, 711]], dtype=int64), array([[780, 129],
       [234, 678]], dtype=int64)]
[0.7130102040816326, 0.79312257348863, 0.7682502896871379, 0.7975322490185082, 0.7888307155322863]
0.805045871559633
[[379  65]
 [105 323]]
0.7916666666666666
